Name,Value01,Value02,Value03
BlockSize,20,,
BlockPicture,crate.jpg,,
NumberOfBlocks,,,
StartPosition,1,1,1
FloorBitmap,checkerboard.jpg,grass01.jpg,
GameGrid,MazeBuilder01.json,MazeBuilder02.json,
NpcsGrid,Npc001.json,Npc002.json,